Combinational Circuits/Adder/Full Adder/6bitadder/sixbitadder.vcd
$date
	Sat Apr 11 23:22:41 2020
$end
$version
	Icarus Verilog
$end
$timescale
	1s
$end
$scope module sixbitadderTB $end
$var wire 1 ! CarryOut $end
$var wire 6 " Sum [5:0] $end
$var reg 6 # A [5:0] $end
$var reg 6 $ B [5:0] $end
$var reg 1 % CarryIn $end
$scope module DUT $end
$var wire 6 & A [5:0] $end
$var wire 6 ' B [5:0] $end
$var wire 1 ( CarryIn $end
$var wire 1 ! CarryOut $end
$var wire 2 ) Carryout [1:0] $end
$var wire 6 * Sum [5:0] $end
$scope module twofa1 $end
$var wire 2 + A [1:0] $end
$var wire 2 , B [1:0] $end
$var wire 1 ( CarryIn $end
$var wire 1 - CarryOut $end
$var wire 2 . Sum [1:0] $end
$var wire 3 / temp [2:0] $end
$upscope $end
$scope module twofa2 $end
$var wire 2 0 A [1:0] $end
$var wire 2 1 B [1:0] $end
$var wire 1 2 CarryIn $end
$var wire 1 3 CarryOut $end
$var wire 2 4 Sum [1:0] $end
$var wire 3 5 temp [2:0] $end
$upscope $end
$scope module twofa3 $end
$var wire 2 6 A [1:0] $end
$var wire 2 7 B [1:0] $end
$var wire 1 8 CarryIn $end
$var wire 1 ! CarryOut $end
$var wire 2 9 Sum [1:0] $end
$var wire 3 : temp [2:0] $end
$upscope $end
$upscope $end
$scope task init $end
$upscope $end
$upscope $end
$enddefinitions $end
#0
$dumpvars
b10 :
b10 9
08
b0 7
b10 6
b11 5
b11 4
03
12
b0 1
b10 0
b100 /
b0 .
1-
b0 ,
b11 +
b101100 *
b10 )
1(
b0 '
b101011 &
1%
b0 $
b101011 #
b101100 "
0!
$end
#5
1!
18
b0 4
13
b11 )
b0 9
b0 "
b0 *
b1 ,
b11 0
b100 5
b11 6
b100 :
0%
0(
b100 /
b1 $
b1 '
b111111 #
b111111 &
#10
08
b10 4
03
b10 )
b1 9
b11000 "
b11000 *
0!
b11 ,
b1 1
b1 7
b0 +
b0 0
b10 5
b0 6
b1 :
1%
1(
b100 /
b10111 $
b10111 '
b0 #
b0 &
#11
02
b0 4
b0 9
b0 "
b0 *
0-
b0 )
b0 ,
b0 1
b0 5
b0 7
b0 :
0%
0(
b0 /
b0 $
b0 '
#12
1!
18
13
12
1-
b11 )
b0 4
b0 9
b0 "
b0 *
b1 ,
b10 7
b11 +
b100 /
b11 0
b100 5
b1 6
b100 :
b100001 $
b100001 '
b11111 #
b11111 &
#13
02
0-
b1 )
b0 4
b10 9
0!
b11 .
b100011 "
b100011 *
b0 ,
b11 1
b1 7
b10 +
b1 0
b100 5
b0 6
b10 :
1%
1(
b11 /
b11100 $
b11100 '
b110 #
b110 &
#14
12
1-
b11 )
b11 4
b11 9
b111111 "
b111111 *
1!
b11 ,
b11 7
b11 +
b111 /
b11 0
b111 5
b11 6
b111 :
b111111 $
b111111 '
b111111 #
b111111 &
#15
b10 .
b111110 "
b111110 *
0%
0(
b110 /
